Chapter 6 Map Plots with Highcharts | Community Contributions for EDAV Fall 2022 Mon/Wed
…
6.0.2 Download the map data and filter

Then, you need to download the map info with get_data_from_map(download_map_data(name_of_geography)). The list of available geographies with examples is here : https://code.highcharts.com/mapdata/ (there are a lot!). In our example, we need a map of Europe.

mapdata = get_data_from_map(download_map_data("custom/europe"))

mapdata

## # A tibble: 50 × 14
##    hc-gr…¹ hc-mi…² hc-mi…³ hc-ke…⁴ `hc-a2` name  label…⁵ count…⁶ subre…⁷ regio…⁸
##    <chr>     <dbl>   <dbl> <chr>   <chr>   <chr> <chr>   <chr>   <chr>   <chr>  
##  1 admin0     0.19    0.44 dk      DK      Denm… 4       Den.    Northe… Europe…
##  2 admin0     0.56    0.16 fo      FO      Faro… 6       Faeroe… Northe… Europe…
##  3 admin0     0.09    0.39 hr      HR      Croa… 6       Cro.    Southe… Europe…
##  4 admin0     0.34    0.59 nl      NL      Neth… 5       Neth.   Wester… Europe…
##  5 admin0     0.6     0.53 ee      EE      Esto… 6       Est.    Northe… Europe…
##  6 admin0     0.54    0.49 bg      BG      Bulg… 4       Bulg.   Easter… Europe…
##  7 admin0     0.38    0.53 es      ES      Spain 2       Sp.     Southe… Europe…
##  8 admin0     0.44    0.38 it      IT      Italy 2       Italy   Southe… Europe…
##  9 admin0     0.68    0.41 sm      SM      San … 6       S.M.    Southe… Europe…
## 10 admin0     0.62    0.44 va      VA      Vati… 6       Vat.    Southe… Europe…
## # … with 40 more rows, 4 more variables: `iso-a3` <chr>, `iso-a2` <chr>,
## #   `woe-id` <chr>, continent <chr>, and abbreviated variable names
## #   ¹​`hc-group`, ²​`hc-middle-x`, ³​`hc-middle-y`, ⁴​`hc-key`, ⁵​labelrank,
## #   ⁶​`country-abbrev`, ⁷​subregion, ⁸​`region-wb`
…
