Chapter 15 Quantmod & Tidyquant Tutorials and Comparison | Community Contributions for EDAV Fall 2022 Mon/Wed
…
##  [1] "stock.prices"       "stock.prices.japan" "dividends"         
##  [4] "splits"             "economic.data"      "quandl"            
##  [7] "quandl.datatable"   "tiingo"             "tiingo.iex"        
## [10] "tiingo.crypto"      "alphavantager"      "alphavantage"      
## [13] "rblpapi"

15.3.2 Getting Data

Example for calling tq_index(“INDEXNAME”) function

SP500 provides a dataset with 8 columns with a capitalization-weighted index such that companies with a higher market cap receives a higher weighting in the index.

tq_index("SP500")

## # A tibble: 503 × 8
##    symbol company                    ident…¹ sedol weight sector share…² local…³
##    <chr>  <chr>                      <chr>   <chr>  <dbl> <chr>    <dbl> <chr>  
##  1 AAPL   Apple Inc.                 037833… 2046… 0.0667 Infor…  1.69e8 USD    
##  2 MSFT   Microsoft Corporation      594918… 2588… 0.0545 Infor…  8.33e7 USD    
##  3 AMZN   Amazon.com Inc.            023135… 2000… 0.0258 Consu…  9.90e7 USD    
##  4 GOOGL  Alphabet Inc. Class A      02079K… BYVY… 0.0169 Commu…  6.70e7 USD    
##  5 BRK-B  Berkshire Hathaway Inc. C… 084670… 2073… 0.0165 Finan…  2.02e7 USD    
##  6 UNH    UnitedHealth Group Incorp… 91324P… 2917… 0.0153 Healt…  1.05e7 USD    
##  7 TSLA   Tesla Inc                  88160R… B616… 0.0153 Consu…  2.98e7 USD    
##  8 GOOG   Alphabet Inc. Class C      02079K… BYY8… 0.0152 Commu…  5.99e7 USD    
##  9 XOM    Exxon Mobil Corporation    30231G… 2326… 0.0139 Energy  4.66e7 USD    
## 10 JNJ    Johnson & Johnson          478160… 2475… 0.0138 Healt…  2.94e7 USD    
## # … with 493 more rows, and abbreviated variable names ¹​identifier,
## #   ²​shares_held, ³​local_currency

Examples for calling tq_get() function

(1). Getting data from Yahoo!Finance - set tq_get(…get = “stock.prices”…)

If we want to get stock prices of companies, Yahoo!Finance is a great choice.

Assume we want stock prices of Apple, Meta, Tesla, and Uber:

aapl_price_yahoo  <- tq_get("AAPL", get = "stock.prices", from = "2022-01-01", to = "2022-06-30")
aapl_price_yahoo

## # A tibble: 123 × 8
##    symbol date        open  high   low close    volume adjusted
##    <chr>  <date>     <dbl> <dbl> <dbl> <dbl>     <dbl>    <dbl>
##  1 AAPL   2022-01-03  178.  183.  178.  182. 104487900     181.
##  2 AAPL   2022-01-04  183.  183.  179.  180.  99310400     179.
##  3 AAPL   2022-01-05  180.  180.  175.  175.  94537600     174.
##  4 AAPL   2022-01-06  173.  175.  172.  172   96904000     171.
##  5 AAPL   2022-01-07  173.  174.  171.  172.  86709100     171.
##  6 AAPL   2022-01-10  169.  172.  168.  172. 106765600     171.
##  7 AAPL   2022-01-11  172.  175.  171.  175.  76138300     174.
##  8 AAPL   2022-01-12  176.  177.  175.  176.  74805200     175.
##  9 AAPL   2022-01-13  176.  177.  172.  172.  84505800     171.
## 10 AAPL   2022-01-14  171.  174.  171.  173.  80440800     172.
## # … with 113 more rows

meta_price_yahoo  <- tq_get("META", get = "stock.prices", from = "2022-01-01", to = "2022-06-30")
meta_price_yahoo 

## # A tibble: 123 × 8
##    symbol date        open  high   low close   volume adjusted
##    <chr>  <date>     <dbl> <dbl> <dbl> <dbl>    <dbl>    <dbl>
##  1 META   2022-01-03  338.  341.  337.  339. 14537900     339.
##  2 META   2022-01-04  340.  343.  332.  337. 15998000     337.
##  3 META   2022-01-05  333.  336.  324.  324. 20564500     324.
##  4 META   2022-01-06  323.  339.  323.  332. 27962800     332.
##  5 META   2022-01-07  333.  337   329.  332. 14722000     332.
##  6 META   2022-01-10  325.  328.  315.  328. 24942400     328.
##  7 META   2022-01-11  327.  335.  325.  334. 16226800     334.
##  8 META   2022-01-12  335.  336.  330.  333. 14104900     333.
##  9 META   2022-01-13  335.  336.  326.  326. 14797100     326.
## 10 META   2022-01-14  322.  333.  321.  332. 16868500     332.
## # … with 113 more rows

tsla_price_yahoo  <- tq_get("TSLA", get = "stock.prices", from = "2022-01-01", to = "2022-06-30")
tsla_price_yahoo

## # A tibble: 123 × 8
##    symbol date        open  high   low close    volume adjusted
##    <chr>  <date>     <dbl> <dbl> <dbl> <dbl>     <dbl>    <dbl>
##  1 TSLA   2022-01-03  383.  400.  379.  400. 103931400     400.
##  2 TSLA   2022-01-04  397.  403.  374.  383. 100248300     383.
##  3 TSLA   2022-01-05  382.  390.  360.  363.  80119800     363.
##  4 TSLA   2022-01-06  359   363.  340.  355.  90336600     355.
##  5 TSLA   2022-01-07  360.  360.  337.  342.  84164700     342.
##  6 TSLA   2022-01-10  333.  353.  327.  353.  91815000     353.
##  7 TSLA   2022-01-11  351.  359.  346.  355.  66063300     355.
##  8 TSLA   2022-01-12  360.  372.  358.  369.  83739000     369.
##  9 TSLA   2022-01-13  370.  372.  342.  344.  97209900     344.
## 10 TSLA   2022-01-14  340.  351.  338.  350.  72924300     350.
## # … with 113 more rows

uber_price_yahoo  <- tq_get("UBER", get = "stock.prices", from = "2022-01-01", to = "2022-06-30")
uber_price_yahoo

## # A tibble: 123 × 8
##    symbol date        open  high   low close   volume adjusted
##    <chr>  <date>     <dbl> <dbl> <dbl> <dbl>    <dbl>    <dbl>
##  1 UBER   2022-01-03  42.5  44.4  41.9  44.0 26089000     44.0
##  2 UBER   2022-01-04  44.2  44.8  42.6  44.4 30845300     44.4
##  3 UBER   2022-01-05  44.3  45.9  42.9  43.2 28498700     43.2
##  4 UBER   2022-01-06  43.1  44.1  41.0  42.0 32434300     42.0
##  5 UBER   2022-01-07  42    42.7  41.2  41.5 24875800     41.5
##  6 UBER   2022-01-10  41.5  42.8  40.2  42.6 29783800     42.6
##  7 UBER   2022-01-11  42.4  44.2  42.2  43.6 22161000     43.6
##  8 UBER   2022-01-12  44.0  44.1  42.5  43.0 18993900     43.0
##  9 UBER   2022-01-13  43.3  43.9  42.7  42.9 17190100     42.9
## 10 UBER   2022-01-14  42.4  42.7  40.4  41.5 25817800     41.5
## # … with 113 more rows
…
Income and expenditure: Real Median Household Income in the United States, Real Disposable Personal Income, Personal Consumption Expenditures, Personal Consumption Expenditures: Durable Goods, Personal Saving Rate, Real Retail and Food Services Sales, Disposable personal income.

Other economic indicators: Industrial Production Index, Capacity Utilization: Total Industry, Housing Starts: Total: New Privately Owned Housing Units Started, Gross Private Domestic Investment, Corporate Profits After Tax (without IVA and CCAdj), St. Louis Fed Financial Stress Index, Crude Oil Prices: West Texas Intermediate (WTI) - Cushing, Oklahoma, Leading Index for the United States, Trade Weighted U.S. Dollar Index: Major Currencies, Trade Weighted U.S. Dollar Index: Broad.

Debt: Federal Debt: Total Public Debt, Federal Debt: Total Public Debt as Percent of Gross Domestic Product, Excess Reserves of Depository Institutions, Commercial and Industrial Loans, All Commercial Banks

(The code for these indicators can be accessed from the website:
https://data.nasdaq.com/data/FRED-federal-reserve-economic-data/documentation)

Assume we want to inspect the GDP within a given tiem window, we found only period data is available.

gdp_fred <- tq_get("GDP", get = "economic.data", from = "2010-01-01", to = "2022-01-01")
gdp_fred 

## # A tibble: 49 × 3
##    symbol date        price
##    <chr>  <date>      <dbl>
##  1 GDP    2010-01-01 14765.
##  2 GDP    2010-04-01 14980.
##  3 GDP    2010-07-01 15142.
##  4 GDP    2010-10-01 15309.
##  5 GDP    2011-01-01 15351.
##  6 GDP    2011-04-01 15558.
##  7 GDP    2011-07-01 15648.
##  8 GDP    2011-10-01 15842.
##  9 GDP    2012-01-01 16069.
## 10 GDP    2012-04-01 16207.
## # … with 39 more rows
…
For convenience, we only work with data retrieved for Meta from Yahoo!Finance as an example.

We transmute daily stock prices for Meta to weekly data.

meta_price_yahoo_weekly <- meta_price_yahoo %>%
  # No need to group at this point, but it allows the "META" name to show. can be deleted. 
  group_by(symbol) %>%
  # set indexAt allow the date to be the last day of each week. 
  tq_transmute(select = adjusted, mutate_fun = to.weekly, indexAt = "lastof")
meta_price_yahoo_weekly

## # A tibble: 26 × 3
## # Groups:   symbol [1]
##    symbol date       adjusted
##    <chr>  <date>        <dbl>
##  1 META   2022-01-07     332.
##  2 META   2022-01-14     332.
##  3 META   2022-01-21     303.
##  4 META   2022-01-28     302.
##  5 META   2022-02-04     237.
##  6 META   2022-02-11     220.
##  7 META   2022-02-18     206.
##  8 META   2022-02-25     210.
##  9 META   2022-03-04     200.
## 10 META   2022-03-11     188.
## # … with 16 more rows

Tesla data is converted for regression in the next steps.

tsla_price_yahoo_weekly <- tsla_price_yahoo %>%
  # No need to group at this point, but it allows the "TSLA" name to show. can be deleted. 
  group_by(symbol) %>%
  # set indexAt allow the date to be the last day of each week. 
  tq_transmute(select = adjusted, mutate_fun = to.weekly, indexAt = "lastof")
tsla_price_yahoo_weekly

## # A tibble: 26 × 3
## # Groups:   symbol [1]
##    symbol date       adjusted
##    <chr>  <date>        <dbl>
##  1 TSLA   2022-01-07     342.
##  2 TSLA   2022-01-14     350.
##  3 TSLA   2022-01-21     315.
##  4 TSLA   2022-01-28     282.
##  5 TSLA   2022-02-04     308.
##  6 TSLA   2022-02-11     287.
##  7 TSLA   2022-02-18     286.
##  8 TSLA   2022-02-25     270.
##  9 TSLA   2022-03-04     279.
## 10 TSLA   2022-03-11     265.
## # … with 16 more rows

Mutate

We mutate weekly return data with the original dataset to show how tq_mutate() works.
tq_mutate(mutate_fun = periodReturn, period = “weekly”) gives a weekly return.

meta_price_yahoo_weekly_returns <- meta_price_yahoo_weekly %>%
    group_by(symbol) %>%
    tq_mutate(mutate_fun = periodReturn, period = "weekly", type = "log")
meta_price_yahoo_weekly_returns

## # A tibble: 26 × 4
## # Groups:   symbol [1]
##    symbol date       adjusted weekly.returns
##    <chr>  <date>        <dbl>          <dbl>
##  1 META   2022-01-07     332.       0       
##  2 META   2022-01-14     332.       0.000331
##  3 META   2022-01-21     303.      -0.0905  
##  4 META   2022-01-28     302.      -0.00483 
##  5 META   2022-02-04     237.      -0.241   
##  6 META   2022-02-11     220.      -0.0769  
##  7 META   2022-02-18     206.      -0.0629  
##  8 META   2022-02-25     210.       0.0207  
##  9 META   2022-03-04     200.      -0.0508  
## 10 META   2022-03-11     188.      -0.0643  
## # … with 16 more rows

We might also want to show how to mutate info from computations across the columns in the original dataset. The original documentation takes rollapply from the zoo package as an example. Rollapply enables applying custom function across a rolling window. We may follow the documentation and use it to compute a rolling regression. We adapt the code from the original documentation and run the rolling regression on our Meta and Tesla dataset.

To prepare for showing how to mutate rolling regressions on the returns of Meta and Tesla, we mutate the weekly returns of Tesla with the original Tesla dataset from Yahoo!Finance as well.

tsla_price_yahoo_weekly_returns <- tsla_price_yahoo_weekly %>%
    group_by(symbol) %>%
    tq_mutate( mutate_fun = periodReturn, period = "weekly", type = "log")
tsla_price_yahoo_weekly_returns

## # A tibble: 26 × 4
## # Groups:   symbol [1]
##    symbol date       adjusted weekly.returns
##    <chr>  <date>        <dbl>          <dbl>
##  1 TSLA   2022-01-07     342.        0      
##  2 TSLA   2022-01-14     350.        0.0218 
##  3 TSLA   2022-01-21     315.       -0.106  
##  4 TSLA   2022-01-28     282.       -0.109  
##  5 TSLA   2022-02-04     308.        0.0870 
##  6 TSLA   2022-02-11     287.       -0.0710 
##  7 TSLA   2022-02-18     286.       -0.00352
##  8 TSLA   2022-02-25     270.       -0.0565 
##  9 TSLA   2022-03-04     279.        0.0345 
## 10 TSLA   2022-03-11     265.       -0.0526 
## # … with 16 more rows

Again, to prepare for running rolling regressions, we select the weekly returns columns from each dataset and join them by date as shown below.

meta_price_yahoo_weekly_returns_only <- meta_price_yahoo_weekly_returns %>%
  select(weekly.returns, date)
tsla_price_yahoo_weekly_returns_only <- tsla_price_yahoo_weekly_returns %>%
  select(weekly.returns, date)

joined_returns <- left_join(meta_price_yahoo_weekly_returns_only, tsla_price_yahoo_weekly_returns_only, 
                            by ="date")
joined_returns

## # A tibble: 26 × 5
##    symbol.x weekly.returns.x date       symbol.y weekly.returns.y
##    <chr>               <dbl> <date>     <chr>               <dbl>
##  1 META             0        2022-01-07 TSLA              0      
##  2 META             0.000331 2022-01-14 TSLA              0.0218 
##  3 META            -0.0905   2022-01-21 TSLA             -0.106  
##  4 META            -0.00483  2022-01-28 TSLA             -0.109  
##  5 META            -0.241    2022-02-04 TSLA              0.0870 
##  6 META            -0.0769   2022-02-11 TSLA             -0.0710 
##  7 META            -0.0629   2022-02-18 TSLA             -0.00352
##  8 META             0.0207   2022-02-25 TSLA             -0.0565 
##  9 META            -0.0508   2022-03-04 TSLA              0.0345 
## 10 META            -0.0643   2022-03-11 TSLA             -0.0526 
## # … with 16 more rows
…
regr_fun <- function(data) {
    coef(lm(weekly.returns.x ~ weekly.returns.y, data = timetk::tk_tbl(data, silent = TRUE)))
}

Notice that we make computations within the tq_mutate() function. The new dataframe is created with the coefficients with regressions attached.

joined_returns %>%
    tq_mutate(mutate_fun = rollapply,
              # 2-week window. 
              width = 2,
              FUN        = regr_fun,
              # We need to specify by.column since we don't want the regression to run on each                 column in the dataset.
              by.column  = FALSE)

## # A tibble: 26 × 7
##    symbol.x weekly.returns.x date       symbol.y weekly.retur…¹ X.Int…² weekly…³
##    <chr>               <dbl> <date>     <chr>             <dbl>   <dbl>    <dbl>
##  1 META             0        2022-01-07 TSLA            0       NA       NA     
##  2 META             0.000331 2022-01-14 TSLA            0.0218   0        0.0152
##  3 META            -0.0905   2022-01-21 TSLA           -0.106   -0.0152   0.710 
##  4 META            -0.00483  2022-01-28 TSLA           -0.109   -3.19   -29.2   
##  5 META            -0.241    2022-02-04 TSLA            0.0870  -0.136   -1.20  
##  6 META            -0.0769   2022-02-11 TSLA           -0.0710  -0.151   -1.04  
##  7 META            -0.0629   2022-02-18 TSLA           -0.00352 -0.0622   0.206 
##  8 META             0.0207   2022-02-25 TSLA           -0.0565  -0.0685  -1.58  
##  9 META            -0.0508   2022-03-04 TSLA            0.0345  -0.0237  -0.786 
## 10 META            -0.0643   2022-03-11 TSLA           -0.0526  -0.0561   0.155 
## # … with 16 more rows, and abbreviated variable names ¹​weekly.returns.y,
## #   ²​X.Intercept., ³​weekly.returns.y..1
…
Graphing different data from different companies

concat1 <- rbind(meta_price_yahoo, aapl_price_yahoo)
concat2 <- rbind(tsla_price_yahoo, concat1)
concat3 <- rbind(uber_price_yahoo, concat2)
concat3

## # A tibble: 492 × 8
##    symbol date        open  high   low close   volume adjusted
##    <chr>  <date>     <dbl> <dbl> <dbl> <dbl>    <dbl>    <dbl>
##  1 UBER   2022-01-03  42.5  44.4  41.9  44.0 26089000     44.0
##  2 UBER   2022-01-04  44.2  44.8  42.6  44.4 30845300     44.4
##  3 UBER   2022-01-05  44.3  45.9  42.9  43.2 28498700     43.2
##  4 UBER   2022-01-06  43.1  44.1  41.0  42.0 32434300     42.0
##  5 UBER   2022-01-07  42    42.7  41.2  41.5 24875800     41.5
##  6 UBER   2022-01-10  41.5  42.8  40.2  42.6 29783800     42.6
##  7 UBER   2022-01-11  42.4  44.2  42.2  43.6 22161000     43.6
##  8 UBER   2022-01-12  44.0  44.1  42.5  43.0 18993900     43.0
##  9 UBER   2022-01-13  43.3  43.9  42.7  42.9 17190100     42.9
## 10 UBER   2022-01-14  42.4  42.7  40.4  41.5 25817800     41.5
## # … with 482 more rows
…
